{
  "variables": {
    "aws_access_key": "{{env `AWS_ACCESS_KEY_ID`}}",
    "aws_secret_key": "{{env `AWS_SECRET_ACCESS_KEY`}}"
  },
  "builders": [{
    "type": "amazon-ebs",
    "access_key": "{{user `aws_access_key`}}",
    "secret_key": "{{user `aws_secret_key`}}",
    "region": "us-east-1",
    "source_ami": "ami-5b417924",
    "instance_type": "t2.small",
    "ssh_username": "ec2-user",
    "ami_name": "abbvie-rlims-ui-base-{{timestamp}}",
    "ssh_pty": "true",
    "vpc_id": "vpc-8df951e8",
    "subnet_id": "subnet-577ab320",
    "security_group_id": "sg-83a2f6e6"
  }],
  "provisioners": [
   	{
      "type": "file",
      "source": "/home/ubuntu/DownLoads/common",
      "destination": "/tmp"
    },
	{
      "type": "file",
      "source": "/home/ubuntu/DownLoads/packer/ui/app",
      "destination": "/tmp"
    },
    {
      "type": "shell",
      "script": "./packer-abbv-ui-app.sh"
    }
  ]
}
